<?xml version="1.0" standalone="no"?>
<!DOCTYPE svg PUBLIC "-//W3C//DTD SVG 20010904//EN"
 "http://www.w3.org/TR/2001/REC-SVG-20010904/DTD/svg10.dtd">
<svg version="1.0" xmlns="http://www.w3.org/2000/svg"
 width="780.000000pt" height="780.000000pt" viewBox="0 0 780.000000 780.000000"
 preserveAspectRatio="xMidYMid meet">
<metadata>
Created by potrace 1.11, written by Peter Selinger 2001-2013
</metadata>
<g transform="translate(0.000000,780.000000) scale(0.100000,-0.100000)"
fill="#000000" stroke="none">
<path d="M0 3900 l0 -3900 3900 0 3900 0 0 3900 0 3900 -3900 0 -3900 0 0
-3900z m1974 475 c230 -415 423 -761 430 -770 10 -14 79 103 440 754 l429 771
348 0 c192 0 349 -3 348 -7 0 -5 -310 -564 -687 -1243 l-688 -1235 -179 -3
-180 -2 -660 1177 c-363 647 -677 1208 -698 1245 l-38 68 358 0 358 0 419
-755z m4999 723 c-10 -18 -88 -158 -173 -310 l-154 -278 -1189 0 -1189 0 30
53 c16 28 93 168 172 310 l142 257 1190 0 1190 0 -19 -32z m-505 -907 c-1 -5
-79 -147 -173 -315 l-170 -306 -1188 0 c-721 0 -1187 4 -1185 9 2 5 79 147
173 315 l170 306 1188 0 c721 0 1187 -4 1185 -9z m-561 -1013 c-25 -46 -102
-184 -170 -308 l-125 -225 -1192 -3 -1192 -2 30 52 c16 29 93 169 172 311
l142 257 1190 0 1190 0 -45 -82z"/>
</g>
</svg>
